Practical-4/waves/star.vcd
$date
	Thu Apr 23 17:35:33 2026
$end
$version
	Icarus Verilog
$end
$timescale
	1ps
$end
$scope module StarCore1_tb $end
$var reg 1 ! clk $end
$var integer 32 " fail_count [31:0] $end
$var integer 32 # test_id [31:0] $end
$scope module uut $end
$var wire 1 ! clk $end
$var wire 1 $ reg_write $end
$var wire 1 % reg_dst $end
$var wire 4 & opcode [3:0] $end
$var wire 1 ' mem_write $end
$var wire 1 ( mem_to_reg $end
$var wire 1 ) mem_read $end
$var wire 1 * jump $end
$var wire 1 + bne $end
$var wire 1 , beq $end
$var wire 1 - alu_src $end
$var wire 2 . alu_op [1:0] $end
$scope module CU $end
$var wire 4 / opcode [3:0] $end
$var reg 2 0 alu_op [1:0] $end
$var reg 1 - alu_src $end
$var reg 1 , beq $end
$var reg 1 + bne $end
$var reg 1 * jump $end
$var reg 1 ) mem_read $end
$var reg 1 ( mem_to_reg $end
$var reg 1 ' mem_write $end
$var reg 1 % reg_dst $end
$var reg 1 $ reg_write $end
$upscope $end
$scope module DU $end
$var wire 2 1 alu_op [1:0] $end
$var wire 1 - alu_src $end
$var wire 1 , beq $end
$var wire 1 2 beq_taken $end
$var wire 1 + bne $end
$var wire 1 3 bne_taken $end
$var wire 1 ! clk $end
$var wire 1 * jump $end
$var wire 1 ) mem_read $end
$var wire 1 ( mem_to_reg $end
$var wire 1 ' mem_write $end
$var wire 1 % reg_dst $end
$var wire 1 $ reg_write $end
$var wire 1 4 zero_flag $end
$var wire 3 5 reg_write_dest [2:0] $end
$var wire 16 6 reg_write_data [15:0] $end
$var wire 16 7 reg_read_data_2 [15:0] $end
$var wire 16 8 reg_read_data_1 [15:0] $end
$var wire 3 9 reg_read_addr_2 [2:0] $end
$var wire 3 : reg_read_addr_1 [2:0] $end
$var wire 16 ; pc_next [15:0] $end
$var wire 16 < pc_jump [15:0] $end
$var wire 16 = pc_branch [15:0] $end
$var wire 16 > pc_after_branch [15:0] $end
$var wire 16 ? pc2 [15:0] $end
$var wire 4 @ opcode [3:0] $end
$var wire 16 A mem_read_data [15:0] $end
$var wire 13 B jump_target [12:0] $end
$var wire 16 C instr [15:0] $end
$var wire 16 D ext_im [15:0] $end
$var wire 16 E alu_result [15:0] $end
$var wire 16 F alu_operand_b [15:0] $end
$var wire 3 G alu_control [2:0] $end
$var reg 16 H pc_current [15:0] $end
$scope module alu_ctrl $end
$var wire 2 I ALUOp [1:0] $end
$var wire 4 J Opcode [3:0] $end
$var wire 6 K control_in [5:0] $end
$var reg 3 L ALU_Cnt [2:0] $end
$upscope $end
$scope module alu_unit $end
$var wire 3 M alu_control [2:0] $end
$var wire 16 N b [15:0] $end
$var wire 1 4 zero $end
$var wire 16 O a [15:0] $end
$var reg 16 P result [15:0] $end
$upscope $end
$scope module dm $end
$var wire 1 ! clk $end
$var wire 16 Q mem_access_addr [15:0] $end
$var wire 1 ) mem_read $end
$var wire 1 ' mem_write_en $end
$var wire 3 R ram_addr [2:0] $end
$var wire 16 S mem_write_data [15:0] $end
$var wire 16 T mem_read_data [15:0] $end
$upscope $end
$scope module im $end
$var wire 16 U instruction [15:0] $end
$var wire 16 V pc [15:0] $end
$var wire 4 W rom_addr [3:0] $end
$upscope $end
$scope module reg_file $end
$var wire 1 ! clk $end
$var wire 3 X reg_read_addr_1 [2:0] $end
$var wire 3 Y reg_read_addr_2 [2:0] $end
$var wire 16 Z reg_read_data_1 [15:0] $end
$var wire 16 [ reg_read_data_2 [15:0] $end
$var wire 16 \ reg_write_data [15:0] $end
$var wire 3 ] reg_write_dest [2:0] $end
$var wire 1 $ reg_write_en $end
$var integer 32 ^ i [31:0] $end
$upscope $end
$upscope $end
$upscope $end
$scope task check16 $end
$var reg 16 _ expected [15:0] $end
$var reg 16 ` got [15:0] $end
$var integer 32 a id [31:0] $end
$upscope $end
$upscope $end
$enddefinitions $end
$comment Show the parameter values. $end
$dumpall
$end
#0
$dumpvars
bx a
bx `
bx _
b1000 ^
b1 ]
b1 \
b0 [
b0 Z
b1 Y
b0 X
b0 W
b0 V
b1000000 U
b1 T
b0 S
b0 R
b0 Q
b0 P
b0 O
b0 N
b0 M
b0 L
b100000 K
b0 J
b10 I
b0 H
b0 G
b0 F
b0 E
b0 D
b1000000 C
b10000000 B
b1 A
b0 @
b10 ?
b10 >
b10 =
b10000000 <
b10 ;
b0 :
b1 9
b0 8
b0 7
b1 6
b1 5
14
03
02
b10 1
b10 0
b0 /
b10 .
1-
0,
0+
0*
1)
1(
0'
b0 &
0%
1$
b1 #
b0 "
0!
$end
#5000
b10 6
b10 \
b10 A
b10 T
b1 R
b1 Q
04
b1 E
b1 P
b1 F
b1 N
b10 5
b10 ]
b100 ;
b100000010 <
b100000010 B
b1 D
b10 9
b10 Y
b100 >
b10000001 C
b10000001 U
b1 W
b0 7
b0 S
b0 [
b110 =
b100 ?
b10 H
b10 V
1!
#10000
0!
#15000
b11 6
b11 \
b11 R
b11 Q
b11 5
b11 ]
b0 A
b0 T
b10 F
b10 N
b11 E
b11 P
1%
b0 .
b0 0
b0 1
b0 I
0)
1$
0(
0-
b110 ;
b10100110000 <
b10100110000 B
b10 K
b10 J
b11000 D
b1 8
b1 O
b1 Z
b1 :
b1 X
b10 &
b10 /
b10 @
b110 >
b10001010011000 C
b10001010011000 U
b10 W
b110110 =
b110 ?
b100 H
b100 V
b10 7
b10 S
b10 [
1!
#20000
0!
#25000
b1 R
b1 6
b1 \
b1 Q
b1 E
b1 P
b0 F
b0 N
b10 .
b10 0
b10 1
b10 I
1'
1-
0$
0%
b1000 ;
b10110000000 <
b10110000000 B
b100001 K
b1 J
b0 D
b11 7
b11 S
b11 [
b11 9
b11 Y
b1 &
b1 /
b1 @
b1000 >
b1001011000000 C
b1001011000000 U
b11 W
b1000 =
b1000 ?
b110 H
b110 V
1!
#30000
0!
#35000
b111 R
b1111111111111111 6
b1111111111111111 \
b111 Q
b1111111111111111 E
b1111111111111111 P
b1 G
b1 L
b1 M
b10 F
b10 N
1$
1%
b0 .
b0 0
b0 1
b0 I
0'
0-
b1010 ;
b10100110000 <
b10100110000 B
b11 K
b11 J
b11000 D
b10 7
b10 S
b10 [
b10 9
b10 Y
b11 &
b11 /
b11 @
b1010 >
b11001010011000 C
b11001010011000 U
b100 W
b111010 =
b1010 ?
b1000 H
b1000 V
1!
#40000
0!
#45000
b0 R
b0 6
b0 \
b0 Q
14
b0 E
b0 P
b101 G
b101 L
b101 M
1$
1%
b1100 ;
b111 K
b111 J
b111 &
b111 /
b111 @
b1100 >
b111001010011000 C
b111001010011000 U
b101 W
b111100 =
b1100 ?
b1010 H
b1010 V
1!
#50000
0!
#55000
b11 R
b11 6
b11 \
b11 Q
04
b11 E
b11 P
b110 G
b110 L
b110 M
1$
1%
b1110 ;
b1000 K
b1000 J
b1000 &
b1000 /
b1000 @
b1110 >
b1000001010011000 C
b1000001010011000 U
b110 W
b111110 =
b1110 ?
b1100 H
b1100 V
1!
#60000
0!
#65000
b1 R
b1 6
b1 \
b1 Q
b1 E
b1 P
b111 G
b111 L
b111 M
1$
1%
b10000 ;
b1001 K
b1001 J
b1001 &
b1001 /
b1001 @
b10000 >
b1001001010011000 C
b1001001010011000 U
b111 W
b1000000 =
b10000 ?
b1110 H
b1110 V
1!
#70000
0!
#75000
b110 R
b1111111111111110 6
b1111111111111110 \
b110 Q
b1111111111111110 E
b1111111111111110 P
b10 G
b10 L
b10 M
b0 F
b0 N
b100 5
b100 ]
1$
1%
b10010 ;
b10001000000 <
b10001000000 B
b100 K
b100 J
b1111111111100000 D
b0 7
b0 S
b0 [
b0 9
b0 Y
b100 &
b100 /
b100 @
b10010 >
b100001000100000 C
b100001000100000 U
b1000 W
b1111111111010010 =
b10010 ?
b10000 H
b10000 V
1!
#80000
0!
#85000
b111 R
b1111111111111111 6
b1111111111111111 \
b111 Q
b1111111111111111 E
b1111111111111111 P
b1 G
b1 L
b1 M
b10 F
b10 N
b10 5
b10 ]
b1 .
b1 0
b1 1
b1 I
1,
0$
0%
b10100 ;
b10100000010 <
b10100000010 B
b11011 K
b1011 J
b1 D
b10 7
b10 S
b10 [
b10 9
b10 Y
b1011 &
b1011 /
b1011 @
b10100 >
b1011001010000001 C
b1011001010000001 U
b1001 W
b10110 =
b10100 ?
b10010 H
b10010 V
1!
#90000
0!
#95000
13
1+
b1 .
b1 0
b1 1
b1 I
0,
b10110 ;
b10100000000 <
b10100000000 B
b11100 K
b1100 J
b0 D
b1100 &
b1100 /
b1100 @
b10110 >
b1100001010000000 C
b1100001010000000 U
b1010 W
b10110 =
b10110 ?
b10100 H
b10100 V
1!
#100000
0!
#105000
b0 R
14
b0 6
b0 \
b0 Q
03
b0 G
b0 L
b0 M
b0 F
b0 N
b0 E
b0 P
b0 5
b0 ]
1*
b0 .
b0 0
b0 1
b0 I
0+
b0 ;
b0 <
b0 B
b1101 K
b1101 J
b0 7
b0 S
b0 [
b0 9
b0 Y
b0 8
b0 O
b0 Z
b0 :
b0 X
b1101 &
b1101 /
b1101 @
b11000 >
b1101000000000000 C
b1101000000000000 U
b1011 W
b11000 =
b11000 ?
b10110 H
b10110 V
1!
#110000
0!
#115000
b1 6
b1 \
b1 A
b1 T
b10 ;
b1 5
b1 ]
b10 .
b10 0
b10 1
b10 I
1)
1$
1(
1-
0*
b10000000 <
b10000000 B
b100000 K
b0 J
b1 7
b1 S
b1 [
b1 9
b1 Y
b0 &
b0 /
b0 @
b10 >
b1000000 C
b1000000 U
b0 W
b10 =
b10 ?
b0 H
b0 V
1!
#120000
0!
#125000
b11 6
b11 \
b11 A
b11 T
b1 R
b1 Q
04
b1 E
b1 P
b1 F
b1 N
b10 5
b10 ]
b100 ;
b100000010 <
b100000010 B
b1 D
b10 7
b10 S
b10 [
b10 9
b10 Y
b100 >
b10000001 C
b10000001 U
b1 W
b110 =
b100 ?
b10 H
b10 V
1!
#130000
0!
b1000 #
b111 a
b0 _
b0 `
