Practical-4/waves/star.vcd
$date
	Tue Apr 21 18:29:27 2026
$end
$version
	Icarus Verilog
$end
$timescale
	1ps
$end
$scope module StarCore1_tb $end
$var reg 1 ! clk $end
$var integer 32 " fail_count [31:0] $end
$var integer 32 # test_id [31:0] $end
$scope module uut $end
$var wire 1 ! clk $end
$var wire 1 $ reg_write $end
$var wire 1 % reg_dst $end
$var wire 4 & opcode [3:0] $end
$var wire 1 ' mem_write $end
$var wire 1 ( mem_to_reg $end
$var wire 1 ) mem_read $end
$var wire 1 * jump $end
$var wire 1 + bne $end
$var wire 1 , beq $end
$var wire 1 - alu_src $end
$var wire 2 . alu_op [1:0] $end
$scope module CU $end
$var wire 4 / opcode [3:0] $end
$var reg 2 0 alu_op [1:0] $end
$var reg 1 - alu_src $end
$var reg 1 , beq $end
$var reg 1 + bne $end
$var reg 1 * jump $end
$var reg 1 ) mem_read $end
$var reg 1 ( mem_to_reg $end
$var reg 1 ' mem_write $end
$var reg 1 % reg_dst $end
$var reg 1 $ reg_write $end
$upscope $end
$scope module DU $end
$var wire 2 1 alu_op [1:0] $end
$var wire 1 - alu_src $end
$var wire 1 , beq $end
$var wire 1 2 beq_taken $end
$var wire 1 + bne $end
$var wire 1 3 bne_taken $end
$var wire 1 ! clk $end
$var wire 1 * jump $end
$var wire 1 ) mem_read $end
$var wire 1 ( mem_to_reg $end
$var wire 1 ' mem_write $end
$var wire 1 % reg_dst $end
$var wire 1 $ reg_write $end
$var wire 1 4 zero_flag $end
$var wire 3 5 reg_write_dest [2:0] $end
$var wire 16 6 reg_write_data [15:0] $end
$var wire 16 7 reg_read_data_2 [15:0] $end
$var wire 16 8 reg_read_data_1 [15:0] $end
$var wire 3 9 reg_read_addr_2 [2:0] $end
$var wire 3 : reg_read_addr_1 [2:0] $end
$var wire 16 ; pc_next [15:0] $end
$var wire 16 < pc_jump [15:0] $end
$var wire 16 = pc_branch [15:0] $end
$var wire 16 > pc_after_branch [15:0] $end
$var wire 16 ? pc2 [15:0] $end
$var wire 4 @ opcode [3:0] $end
$var wire 16 A mem_read_data [15:0] $end
$var wire 13 B jump_target [12:0] $end
$var wire 16 C instr [15:0] $end
$var wire 16 D ext_im [15:0] $end
$var wire 16 E alu_result [15:0] $end
$var wire 16 F alu_operand_b [15:0] $end
$var wire 3 G alu_control [2:0] $end
$var reg 16 H pc_current [15:0] $end
$scope module alu_ctrl $end
$var wire 2 I ALUOp [1:0] $end
$var wire 4 J Opcode [3:0] $end
$var wire 6 K control_in [5:0] $end
$var reg 3 L ALU_Cnt [2:0] $end
$upscope $end
$scope module alu_unit $end
$var wire 3 M alu_control [2:0] $end
$var wire 16 N b [15:0] $end
$var wire 1 4 zero $end
$var wire 16 O a [15:0] $end
$var reg 16 P result [15:0] $end
$upscope $end
$scope module dm $end
$var wire 1 ! clk $end
$var wire 16 Q mem_access_addr [15:0] $end
$var wire 1 ) mem_read $end
$var wire 1 ' mem_write_en $end
$var wire 3 R ram_addr [2:0] $end
$var wire 16 S mem_write_data [15:0] $end
$var wire 16 T mem_read_data [15:0] $end
$upscope $end
$scope module im $end
$var wire 16 U instruction [15:0] $end
$var wire 16 V pc [15:0] $end
$var wire 4 W rom_addr [3:0] $end
$upscope $end
$scope module reg_file $end
$var wire 1 ! clk $end
$var wire 3 X reg_read_addr_1 [2:0] $end
$var wire 3 Y reg_read_addr_2 [2:0] $end
$var wire 16 Z reg_read_data_1 [15:0] $end
$var wire 16 [ reg_read_data_2 [15:0] $end
$var wire 16 \ reg_write_data [15:0] $end
$var wire 3 ] reg_write_dest [2:0] $end
$var wire 1 $ reg_write_en $end
$var integer 32 ^ i [31:0] $end
$upscope $end
$upscope $end
$upscope $end
$scope task check16 $end
$var reg 16 _ expected [15:0] $end
$var reg 16 ` got [15:0] $end
$var reg 64 a id [63:0] $end
$upscope $end
$upscope $end
$enddefinitions $end
$comment Show the parameter values. $end
$dumpall
$end
#0
$dumpvars
bx a
bx `
bx _
b1000 ^
b0 ]
bx \
b0 [
b0 Z
b0 Y
b10 X
b0 W
b0 V
b10000000000 U
bx T
b0 S
b0 R
b0 Q
b0 P
b0 O
b0 N
b0 M
b0 L
b100000 K
b0 J
b10 I
b0 H
b0 G
b0 F
b0 E
b0 D
b10000000000 C
b100000000000 B
bx A
b0 @
b10 ?
b10 >
b10 =
b100000000000 <
b10 ;
b10 :
b0 9
b0 8
b0 7
bx 6
b0 5
14
03
02
b10 1
b10 0
b0 /
b10 .
1-
0,
0+
0*
1)
1(
0'
b0 &
0%
1$
b1 #
b0 "
0!
$end
#5000
b1 R
04
b1 E
b1 P
b1 Q
b1 F
b1 N
b1 5
b1 ]
b100 ;
b100010000010 <
b100010000010 B
b1 D
b1 9
b1 Y
b100 >
b10001000001 C
b10001000001 U
b1 W
b0 7
b0 S
b0 [
b110 =
b100 ?
b10 H
b10 V
1!
#10000
0!
#15000
bx R
b10 5
b10 ]
b0 A
b0 T
bx F
bx N
x4
bx E
bx P
bx Q
1%
b0 .
b0 0
b0 1
b0 I
0)
1$
0(
0-
b110 ;
b10100000 <
b10100000 B
b10 K
b10 J
b10000 D
bx 8
bx O
bx Z
b0 :
b0 X
b10 &
b10 /
b10 @
b110 >
b10000001010000 C
b10000001010000 U
b10 W
b100110 =
b110 ?
b100 H
b100 V
bx 7
bx S
bx [
1!
#20000
0!
#25000
b0 F
b0 N
b10 .
b10 0
b10 1
b10 I
1'
1-
0$
0%
b1000 ;
b10100000000 <
b10100000000 B
b100001 K
b1 J
b0 D
b10 9
b10 Y
b1 :
b1 X
b1 &
b1 /
b1 @
b1000 >
b1001010000000 C
b1001010000000 U
b11 W
b1000 =
b1000 ?
b110 H
b110 V
1!
#30000
0!
#35000
b1 G
b1 L
b1 M
bx F
bx N
1$
1%
b0 .
b0 0
b0 1
b0 I
0'
0-
b1010 ;
b10100000 <
b10100000 B
b11 K
b11 J
b10000 D
b1 9
b1 Y
b0 :
b0 X
b11 &
b11 /
b11 @
b1010 >
b11000001010000 C
b11000001010000 U
b100 W
b101010 =
b1010 ?
b1000 H
b1000 V
1!
#40000
0!
#45000
b101 G
b101 L
b101 M
1$
1%
b1100 ;
b111 K
b111 J
b111 &
b111 /
b111 @
b1100 >
b111000001010000 C
b111000001010000 U
b101 W
b101100 =
b1100 ?
b1010 H
b1010 V
1!
#50000
0!
#55000
b110 G
b110 L
b110 M
1$
1%
b1110 ;
b1000 K
b1000 J
b1000 &
b1000 /
b1000 @
b1110 >
b1000000001010000 C
b1000000001010000 U
b110 W
b101110 =
b1110 ?
b1100 H
b1100 V
1!
#60000
0!
#65000
b0x R
b0x 6
b0x \
b0x E
b0x P
b0x Q
b111 G
b111 L
b111 M
1$
1%
b10000 ;
b1001 K
b1001 J
b1001 &
b1001 /
b1001 @
b10000 >
b1001000001010000 C
b1001000001010000 U
b111 W
b110000 =
b10000 ?
b1110 H
b1110 V
1!
#70000
0!
#75000
bx R
bx 6
bx \
bx E
bx P
bx Q
b0 G
b0 L
b0 M
b0 5
b0 ]
1$
1%
b10010 ;
b0 <
b0 B
b10 K
b10 J
b0 D
b0 9
b0 Y
b10 &
b10 /
b10 @
b10010 >
b10000000000000 C
b10000000000000 U
b1000 W
b10010 =
b10010 ?
b10000 H
b10000 V
1!
#80000
0!
#85000
x2
b1 5
b1 ]
b1 G
b1 L
b1 M
b1 .
b1 0
b1 1
b1 I
1,
0$
0%
b101x0 ;
b10000010 <
b10000010 B
b11011 K
b1011 J
b1 D
b1 9
b1 Y
b1011 &
b1011 /
b1011 @
b101x0 >
b1011000001000001 C
b1011000001000001 U
b1001 W
b10110 =
b10100 ?
b10010 H
b10010 V
1!
#90000
0!
#95000
02
b0 G
b0 L
b0 M
bx 5
bx ]
b0 .
b0 0
b0 1
b0 I
0,
bx ;
bx0 B
b0xxxx K
bx J
bx D
bx 9
bx Y
bx :
bx X
bx &
bx /
bx @
bx >
bx0 <
bx C
bx U
b101x W
bx =
bx ?
b101x0 H
b101x0 V
1!
#100000
0!
#105000
bx W
bx H
bx V
1!
